// Jest Snapshot v1, https://goo.gl/fbAQLP

exports[`[Component][Basics][Cell][String] Component should render with all this.props 1`] = `
<button
  class="MuiButtonBase-root-63 MuiButton-root-37 button MuiButton-text-39 MuiButton-flat-42 text"
  tabindex="0"
  type="button"
>
  <span
    class="MuiButton-label-38"
  >
    <div
      class="test"
    >
      <div
        class=""
      >
        <div
          class=""
        >
          <p
            class="MuiTypography-root-1 MuiTypography-body2-9"
          >
            test
          </p>
        </div>
        <div
          class=""
        />
      </div>
    </div>
  </span>
</button>
`;

exports[`[Component][Basics][Cell][String] Component should render with no props 1`] = `
<div
  class=""
>
  <div
    class=""
  >
    <div
      class=""
    >
      <p
        class="MuiTypography-root-1 MuiTypography-body2-9"
      />
    </div>
    <div
      class=""
    />
  </div>
</div>
`;

exports[`[Component][Basics][Cell][String] Component style with all this.props 1`] = `
<StringCell
  cellClassName=""
  className="test"
  classes={Object {}}
  colorError={false}
  detail=""
  detailClassName=""
  iconLeftClassName=""
  iconRightClassName=""
  isAmount={false}
  label="test"
  labelClassName=""
  modification={false}
  noWrap={false}
  onClick={[Function]}
  paddingLeft={false}
  stringClassName=""
  typoVariant="body2"
  value={0}
>
  <Button
    className=""
    classes={
      Object {
        "root": "button",
      }
    }
    color="default"
    disabled={false}
    onClick={[Function]}
    type="button"
    variant="text"
  >
    <WithStyles(Button)
      className="text"
      classes={
        Object {
          "root": "button",
        }
      }
      color="default"
      disabled={false}
      onClick={[Function]}
      type="button"
      variant="text"
    >
      <Button
        className="text"
        classes={
          Object {
            "colorInherit": "MuiButton-colorInherit-58",
            "contained": "MuiButton-contained-48",
            "containedPrimary": "MuiButton-containedPrimary-49",
            "containedSecondary": "MuiButton-containedSecondary-50",
            "disabled": "MuiButton-disabled-57",
            "extendedFab": "MuiButton-extendedFab-55",
            "fab": "MuiButton-fab-54",
            "flat": "MuiButton-flat-42",
            "flatPrimary": "MuiButton-flatPrimary-43",
            "flatSecondary": "MuiButton-flatSecondary-44",
            "focusVisible": "MuiButton-focusVisible-56",
            "fullWidth": "MuiButton-fullWidth-62",
            "label": "MuiButton-label-38",
            "mini": "MuiButton-mini-59",
            "outlined": "MuiButton-outlined-45",
            "outlinedPrimary": "MuiButton-outlinedPrimary-46",
            "outlinedSecondary": "MuiButton-outlinedSecondary-47",
            "raised": "MuiButton-raised-51",
            "raisedPrimary": "MuiButton-raisedPrimary-52",
            "raisedSecondary": "MuiButton-raisedSecondary-53",
            "root": "MuiButton-root-37 button",
            "sizeLarge": "MuiButton-sizeLarge-61",
            "sizeSmall": "MuiButton-sizeSmall-60",
            "text": "MuiButton-text-39",
            "textPrimary": "MuiButton-textPrimary-40",
            "textSecondary": "MuiButton-textSecondary-41",
          }
        }
        color="default"
        component="button"
        disableFocusRipple={false}
        disabled={false}
        fullWidth={false}
        mini={false}
        onClick={[Function]}
        size="medium"
        type="button"
        variant="text"
      >
        <WithStyles(ButtonBase)
          className="MuiButton-root-37 button MuiButton-text-39 MuiButton-flat-42 text"
          component="button"
          disabled={false}
          focusRipple={true}
          focusVisibleClassName="MuiButton-focusVisible-56"
          onClick={[Function]}
          type="button"
        >
          <ButtonBase
            centerRipple={false}
            className="MuiButton-root-37 button MuiButton-text-39 MuiButton-flat-42 text"
            classes={
              Object {
                "disabled": "MuiButtonBase-disabled-64",
                "focusVisible": "MuiButtonBase-focusVisible-65",
                "root": "MuiButtonBase-root-63",
              }
            }
            component="button"
            disableRipple={false}
            disableTouchRipple={false}
            disabled={false}
            focusRipple={true}
            focusVisibleClassName="MuiButton-focusVisible-56"
            onClick={[Function]}
            tabIndex="0"
            type="button"
          >
            <button
              className="MuiButtonBase-root-63 MuiButton-root-37 button MuiButton-text-39 MuiButton-flat-42 text"
              disabled={false}
              onBlur={[Function]}
              onClick={[Function]}
              onContextMenu={[Function]}
              onFocus={[Function]}
              onKeyDown={[Function]}
              onKeyUp={[Function]}
              onMouseDown={[Function]}
              onMouseLeave={[Function]}
              onMouseUp={[Function]}
              onTouchEnd={[Function]}
              onTouchMove={[Function]}
              onTouchStart={[Function]}
              tabIndex="0"
              type="button"
            >
              <span
                className="MuiButton-label-38"
              >
                <div
                  className="test"
                >
                  <div
                    className=""
                  >
                    <div
                      className=""
                    >
                      <WithStyles(Typography)
                        color="default"
                        noWrap={false}
                        variant="body2"
                      >
                        <Typography
                          align="inherit"
                          classes={
                            Object {
                              "alignCenter": "MuiTypography-alignCenter-24",
                              "alignJustify": "MuiTypography-alignJustify-26",
                              "alignLeft": "MuiTypography-alignLeft-23",
                              "alignRight": "MuiTypography-alignRight-25",
                              "body1": "MuiTypography-body1-10",
                              "body2": "MuiTypography-body2-9",
                              "button": "MuiTypography-button-12",
                              "caption": "MuiTypography-caption-11",
                              "colorError": "MuiTypography-colorError-35",
                              "colorInherit": "MuiTypography-colorInherit-30",
                              "colorPrimary": "MuiTypography-colorPrimary-31",
                              "colorSecondary": "MuiTypography-colorSecondary-32",
                              "colorTextPrimary": "MuiTypography-colorTextPrimary-33",
                              "colorTextSecondary": "MuiTypography-colorTextSecondary-34",
                              "display1": "MuiTypography-display1-5",
                              "display2": "MuiTypography-display2-4",
                              "display3": "MuiTypography-display3-3",
                              "display4": "MuiTypography-display4-2",
                              "gutterBottom": "MuiTypography-gutterBottom-28",
                              "h1": "MuiTypography-h1-13",
                              "h2": "MuiTypography-h2-14",
                              "h3": "MuiTypography-h3-15",
                              "h4": "MuiTypography-h4-16",
                              "h5": "MuiTypography-h5-17",
                              "h6": "MuiTypography-h6-18",
                              "headline": "MuiTypography-headline-6",
                              "inline": "MuiTypography-inline-36",
                              "noWrap": "MuiTypography-noWrap-27",
                              "overline": "MuiTypography-overline-21",
                              "paragraph": "MuiTypography-paragraph-29",
                              "root": "MuiTypography-root-1",
                              "srOnly": "MuiTypography-srOnly-22",
                              "subheading": "MuiTypography-subheading-8",
                              "subtitle1": "MuiTypography-subtitle1-19",
                              "subtitle2": "MuiTypography-subtitle2-20",
                              "title": "MuiTypography-title-7",
                            }
                          }
                          color="default"
                          gutterBottom={false}
                          headlineMapping={
                            Object {
                              "body1": "p",
                              "body2": "p",
                              "display1": "h1",
                              "display2": "h1",
                              "display3": "h1",
                              "display4": "h1",
                              "h1": "h1",
                              "h2": "h2",
                              "h3": "h3",
                              "h4": "h4",
                              "h5": "h5",
                              "h6": "h6",
                              "headline": "h1",
                              "subheading": "h3",
                              "subtitle1": "h6",
                              "subtitle2": "h6",
                              "title": "h2",
                            }
                          }
                          inline={false}
                          noWrap={false}
                          paragraph={false}
                          theme={
                            Object {
                              "breakpoints": Object {
                                "between": [Function],
                                "down": [Function],
                                "keys": Array [
                                  "xs",
                                  "sm",
                                  "md",
                                  "lg",
                                  "xl",
                                ],
                                "only": [Function],
                                "up": [Function],
                                "values": Object {
                                  "lg": 1280,
                                  "md": 960,
                                  "sm": 600,
                                  "xl": 1920,
                                  "xs": 0,
                                },
                                "width": [Function],
                              },
                              "direction": "ltr",
                              "mixins": Object {
                                "gutters": [Function],
                                "toolbar": Object {
                                  "@media (min-width:0px) and (orientation: landscape)": Object {
                                    "minHeight": 48,
                                  },
                                  "@media (min-width:600px)": Object {
                                    "minHeight": 64,
                                  },
                                  "minHeight": 56,
                                },
                              },
                              "overrides": Object {},
                              "palette": Object {
                                "action": Object {
                                  "active": "rgba(0, 0, 0, 0.54)",
                                  "disabled": "rgba(0, 0, 0, 0.26)",
                                  "disabledBackground": "rgba(0, 0, 0, 0.12)",
                                  "hover": "rgba(0, 0, 0, 0.08)",
                                  "hoverOpacity": 0.08,
                                  "selected": "rgba(0, 0, 0, 0.14)",
                                },
                                "augmentColor": [Function],
                                "background": Object {
                                  "default": "#fafafa",
                                  "paper": "#fff",
                                },
                                "common": Object {
                                  "black": "#000",
                                  "white": "#fff",
                                },
                                "contrastThreshold": 3,
                                "divider": "rgba(0, 0, 0, 0.12)",
                                "error": Object {
                                  "contrastText": "#fff",
                                  "dark": "#d32f2f",
                                  "light": "#e57373",
                                  "main": "#f44336",
                                },
                                "getContrastText": [Function],
                                "grey": Object {
                                  "100": "#f5f5f5",
                                  "200": "#eeeeee",
                                  "300": "#e0e0e0",
                                  "400": "#bdbdbd",
                                  "50": "#fafafa",
                                  "500": "#9e9e9e",
                                  "600": "#757575",
                                  "700": "#616161",
                                  "800": "#424242",
                                  "900": "#212121",
                                  "A100": "#d5d5d5",
                                  "A200": "#aaaaaa",
                                  "A400": "#303030",
                                  "A700": "#616161",
                                },
                                "primary": Object {
                                  "contrastText": "#fff",
                                  "dark": "#303f9f",
                                  "light": "#7986cb",
                                  "main": "#3f51b5",
                                },
                                "secondary": Object {
                                  "contrastText": "#fff",
                                  "dark": "#c51162",
                                  "light": "#ff4081",
                                  "main": "#f50057",
                                },
                                "text": Object {
                                  "disabled": "rgba(0, 0, 0, 0.38)",
                                  "hint": "rgba(0, 0, 0, 0.38)",
                                  "primary": "rgba(0, 0, 0, 0.87)",
                                  "secondary": "rgba(0, 0, 0, 0.54)",
                                },
                                "tonalOffset": 0.2,
                                "type": "light",
                              },
                              "props": Object {},
                              "shadows": Array [
                                "none",
                                "0px 1px 3px 0px rgba(0,0,0,0.2),0px 1px 1px 0px rgba(0,0,0,0.14),0px 2px 1px -1px rgba(0,0,0,0.12)",
                                "0px 1px 5px 0px rgba(0,0,0,0.2),0px 2px 2px 0px rgba(0,0,0,0.14),0px 3px 1px -2px rgba(0,0,0,0.12)",
                                "0px 1px 8px 0px rgba(0,0,0,0.2),0px 3px 4px 0px rgba(0,0,0,0.14),0px 3px 3px -2px rgba(0,0,0,0.12)",
                                "0px 2px 4px -1px rgba(0,0,0,0.2),0px 4px 5px 0px rgba(0,0,0,0.14),0px 1px 10px 0px rgba(0,0,0,0.12)",
                                "0px 3px 5px -1px rgba(0,0,0,0.2),0px 5px 8px 0px rgba(0,0,0,0.14),0px 1px 14px 0px rgba(0,0,0,0.12)",
                                "0px 3px 5px -1px rgba(0,0,0,0.2),0px 6px 10px 0px rgba(0,0,0,0.14),0px 1px 18px 0px rgba(0,0,0,0.12)",
                                "0px 4px 5px -2px rgba(0,0,0,0.2),0px 7px 10px 1px rgba(0,0,0,0.14),0px 2px 16px 1px rgba(0,0,0,0.12)",
                                "0px 5px 5px -3px rgba(0,0,0,0.2),0px 8px 10px 1px rgba(0,0,0,0.14),0px 3px 14px 2px rgba(0,0,0,0.12)",
                                "0px 5px 6px -3px rgba(0,0,0,0.2),0px 9px 12px 1px rgba(0,0,0,0.14),0px 3px 16px 2px rgba(0,0,0,0.12)",
                                "0px 6px 6px -3px rgba(0,0,0,0.2),0px 10px 14px 1px rgba(0,0,0,0.14),0px 4px 18px 3px rgba(0,0,0,0.12)",
                                "0px 6px 7px -4px rgba(0,0,0,0.2),0px 11px 15px 1px rgba(0,0,0,0.14),0px 4px 20px 3px rgba(0,0,0,0.12)",
                                "0px 7px 8px -4px rgba(0,0,0,0.2),0px 12px 17px 2px rgba(0,0,0,0.14),0px 5px 22px 4px rgba(0,0,0,0.12)",
                                "0px 7px 8px -4px rgba(0,0,0,0.2),0px 13px 19px 2px rgba(0,0,0,0.14),0px 5px 24px 4px rgba(0,0,0,0.12)",
                                "0px 7px 9px -4px rgba(0,0,0,0.2),0px 14px 21px 2px rgba(0,0,0,0.14),0px 5px 26px 4px rgba(0,0,0,0.12)",
                                "0px 8px 9px -5px rgba(0,0,0,0.2),0px 15px 22px 2px rgba(0,0,0,0.14),0px 6px 28px 5px rgba(0,0,0,0.12)",
                                "0px 8px 10px -5px rgba(0,0,0,0.2),0px 16px 24px 2px rgba(0,0,0,0.14),0px 6px 30px 5px rgba(0,0,0,0.12)",
                                "0px 8px 11px -5px rgba(0,0,0,0.2),0px 17px 26px 2px rgba(0,0,0,0.14),0px 6px 32px 5px rgba(0,0,0,0.12)",
                                "0px 9px 11px -5px rgba(0,0,0,0.2),0px 18px 28px 2px rgba(0,0,0,0.14),0px 7px 34px 6px rgba(0,0,0,0.12)",
                                "0px 9px 12px -6px rgba(0,0,0,0.2),0px 19px 29px 2px rgba(0,0,0,0.14),0px 7px 36px 6px rgba(0,0,0,0.12)",
                                "0px 10px 13px -6px rgba(0,0,0,0.2),0px 20px 31px 3px rgba(0,0,0,0.14),0px 8px 38px 7px rgba(0,0,0,0.12)",
                                "0px 10px 13px -6px rgba(0,0,0,0.2),0px 21px 33px 3px rgba(0,0,0,0.14),0px 8px 40px 7px rgba(0,0,0,0.12)",
                                "0px 10px 14px -6px rgba(0,0,0,0.2),0px 22px 35px 3px rgba(0,0,0,0.14),0px 8px 42px 7px rgba(0,0,0,0.12)",
                                "0px 11px 14px -7px rgba(0,0,0,0.2),0px 23px 36px 3px rgba(0,0,0,0.14),0px 9px 44px 8px rgba(0,0,0,0.12)",
                                "0px 11px 15px -7px rgba(0,0,0,0.2),0px 24px 38px 3px rgba(0,0,0,0.14),0px 9px 46px 8px rgba(0,0,0,0.12)",
                              ],
                              "shape": Object {
                                "borderRadius": 4,
                              },
                              "spacing": Object {
                                "unit": 8,
                              },
                              "transitions": Object {
                                "create": [Function],
                                "duration": Object {
                                  "complex": 375,
                                  "enteringScreen": 225,
                                  "leavingScreen": 195,
                                  "short": 250,
                                  "shorter": 200,
                                  "shortest": 150,
                                  "standard": 300,
                                },
                                "easing": Object {
                                  "easeIn": "cubic-bezier(0.4, 0, 1, 1)",
                                  "easeInOut": "cubic-bezier(0.4, 0, 0.2, 1)",
                                  "easeOut": "cubic-bezier(0.0, 0, 0.2, 1)",
                                  "sharp": "cubic-bezier(0.4, 0, 0.6, 1)",
                                },
                                "getAutoHeightDuration": [Function],
                              },
                              "typography": Object {
                                "body1": Object {
                                  "color": "rgba(0, 0, 0, 0.87)",
                                  "fontFamily": "\\"Roboto\\", \\"Helvetica\\", \\"Arial\\", sans-serif",
                                  "fontSize": "0.875rem",
                                  "fontWeight": 400,
                                  "lineHeight": "1.46429em",
                                },
                                "body1Next": Object {
                                  "color": "rgba(0, 0, 0, 0.87)",
                                  "fontFamily": "\\"Roboto\\", \\"Helvetica\\", \\"Arial\\", sans-serif",
                                  "fontSize": "1rem",
                                  "fontWeight": 400,
                                  "letterSpacing": "0.00938em",
                                  "lineHeight": 1.5,
                                },
                                "body2": Object {
                                  "color": "rgba(0, 0, 0, 0.87)",
                                  "fontFamily": "\\"Roboto\\", \\"Helvetica\\", \\"Arial\\", sans-serif",
                                  "fontSize": "0.875rem",
                                  "fontWeight": 500,
                                  "lineHeight": "1.71429em",
                                },
                                "body2Next": Object {
                                  "color": "rgba(0, 0, 0, 0.87)",
                                  "fontFamily": "\\"Roboto\\", \\"Helvetica\\", \\"Arial\\", sans-serif",
                                  "fontSize": "0.875rem",
                                  "fontWeight": 400,
                                  "letterSpacing": "0.01071em",
                                  "lineHeight": 1.5,
                                },
                                "button": Object {
                                  "color": "rgba(0, 0, 0, 0.87)",
                                  "fontFamily": "\\"Roboto\\", \\"Helvetica\\", \\"Arial\\", sans-serif",
                                  "fontSize": "0.875rem",
                                  "fontWeight": 500,
                                  "textTransform": "uppercase",
                                },
                                "buttonNext": Object {
                                  "color": "rgba(0, 0, 0, 0.87)",
                                  "fontFamily": "\\"Roboto\\", \\"Helvetica\\", \\"Arial\\", sans-serif",
                                  "fontSize": "0.875rem",
                                  "fontWeight": 500,
                                  "letterSpacing": "0.02857em",
                                  "lineHeight": 1.75,
                                  "textTransform": "uppercase",
                                },
                                "caption": Object {
                                  "color": "rgba(0, 0, 0, 0.54)",
                                  "fontFamily": "\\"Roboto\\", \\"Helvetica\\", \\"Arial\\", sans-serif",
                                  "fontSize": "0.75rem",
                                  "fontWeight": 400,
                                  "lineHeight": "1.375em",
                                },
                                "captionNext": Object {
                                  "color": "rgba(0, 0, 0, 0.87)",
                                  "fontFamily": "\\"Roboto\\", \\"Helvetica\\", \\"Arial\\", sans-serif",
                                  "fontSize": "0.75rem",
                                  "fontWeight": 400,
                                  "letterSpacing": "0.03333em",
                                  "lineHeight": 1.66,
                                },
                                "display1": Object {
                                  "color": "rgba(0, 0, 0, 0.54)",
                                  "fontFamily": "\\"Roboto\\", \\"Helvetica\\", \\"Arial\\", sans-serif",
                                  "fontSize": "2.125rem",
                                  "fontWeight": 400,
                                  "lineHeight": "1.20588em",
                                },
                                "display2": Object {
                                  "color": "rgba(0, 0, 0, 0.54)",
                                  "fontFamily": "\\"Roboto\\", \\"Helvetica\\", \\"Arial\\", sans-serif",
                                  "fontSize": "2.8125rem",
                                  "fontWeight": 400,
                                  "lineHeight": "1.13333em",
                                  "marginLeft": "-.02em",
                                },
                                "display3": Object {
                                  "color": "rgba(0, 0, 0, 0.54)",
                                  "fontFamily": "\\"Roboto\\", \\"Helvetica\\", \\"Arial\\", sans-serif",
                                  "fontSize": "3.5rem",
                                  "fontWeight": 400,
                                  "letterSpacing": "-.02em",
                                  "lineHeight": "1.30357em",
                                  "marginLeft": "-.02em",
                                },
                                "display4": Object {
                                  "color": "rgba(0, 0, 0, 0.54)",
                                  "fontFamily": "\\"Roboto\\", \\"Helvetica\\", \\"Arial\\", sans-serif",
                                  "fontSize": "7rem",
                                  "fontWeight": 300,
                                  "letterSpacing": "-.04em",
                                  "lineHeight": "1.14286em",
                                  "marginLeft": "-.04em",
                                },
                                "fontFamily": "\\"Roboto\\", \\"Helvetica\\", \\"Arial\\", sans-serif",
                                "fontSize": 14,
                                "fontWeightLight": 300,
                                "fontWeightMedium": 500,
                                "fontWeightRegular": 400,
                                "h1": Object {
                                  "color": "rgba(0, 0, 0, 0.87)",
                                  "fontFamily": "\\"Roboto\\", \\"Helvetica\\", \\"Arial\\", sans-serif",
                                  "fontSize": "6rem",
                                  "fontWeight": 300,
                                  "letterSpacing": "-0.01562em",
                                  "lineHeight": 1,
                                },
                                "h2": Object {
                                  "color": "rgba(0, 0, 0, 0.87)",
                                  "fontFamily": "\\"Roboto\\", \\"Helvetica\\", \\"Arial\\", sans-serif",
                                  "fontSize": "3.75rem",
                                  "fontWeight": 300,
                                  "letterSpacing": "-0.00833em",
                                  "lineHeight": 1,
                                },
                                "h3": Object {
                                  "color": "rgba(0, 0, 0, 0.87)",
                                  "fontFamily": "\\"Roboto\\", \\"Helvetica\\", \\"Arial\\", sans-serif",
                                  "fontSize": "3rem",
                                  "fontWeight": 400,
                                  "letterSpacing": "0em",
                                  "lineHeight": 1.04,
                                },
                                "h4": Object {
                                  "color": "rgba(0, 0, 0, 0.87)",
                                  "fontFamily": "\\"Roboto\\", \\"Helvetica\\", \\"Arial\\", sans-serif",
                                  "fontSize": "2.125rem",
                                  "fontWeight": 400,
                                  "letterSpacing": "0.00735em",
                                  "lineHeight": 1.17,
                                },
                                "h5": Object {
                                  "color": "rgba(0, 0, 0, 0.87)",
                                  "fontFamily": "\\"Roboto\\", \\"Helvetica\\", \\"Arial\\", sans-serif",
                                  "fontSize": "1.5rem",
                                  "fontWeight": 400,
                                  "letterSpacing": "0em",
                                  "lineHeight": 1.33,
                                },
                                "h6": Object {
                                  "color": "rgba(0, 0, 0, 0.87)",
                                  "fontFamily": "\\"Roboto\\", \\"Helvetica\\", \\"Arial\\", sans-serif",
                                  "fontSize": "1.25rem",
                                  "fontWeight": 500,
                                  "letterSpacing": "0.0075em",
                                  "lineHeight": 1.6,
                                },
                                "headline": Object {
                                  "color": "rgba(0, 0, 0, 0.87)",
                                  "fontFamily": "\\"Roboto\\", \\"Helvetica\\", \\"Arial\\", sans-serif",
                                  "fontSize": "1.5rem",
                                  "fontWeight": 400,
                                  "lineHeight": "1.35417em",
                                },
                                "overline": Object {
                                  "color": "rgba(0, 0, 0, 0.87)",
                                  "fontFamily": "\\"Roboto\\", \\"Helvetica\\", \\"Arial\\", sans-serif",
                                  "fontSize": "0.75rem",
                                  "fontWeight": 400,
                                  "letterSpacing": "0.08333em",
                                  "lineHeight": 2.66,
                                  "textTransform": "uppercase",
                                },
                                "pxToRem": [Function],
                                "round": [Function],
                                "subheading": Object {
                                  "color": "rgba(0, 0, 0, 0.87)",
                                  "fontFamily": "\\"Roboto\\", \\"Helvetica\\", \\"Arial\\", sans-serif",
                                  "fontSize": "1rem",
                                  "fontWeight": 400,
                                  "lineHeight": "1.5em",
                                },
                                "subtitle1": Object {
                                  "color": "rgba(0, 0, 0, 0.87)",
                                  "fontFamily": "\\"Roboto\\", \\"Helvetica\\", \\"Arial\\", sans-serif",
                                  "fontSize": "1rem",
                                  "fontWeight": 400,
                                  "letterSpacing": "0.00938em",
                                  "lineHeight": 1.75,
                                },
                                "subtitle2": Object {
                                  "color": "rgba(0, 0, 0, 0.87)",
                                  "fontFamily": "\\"Roboto\\", \\"Helvetica\\", \\"Arial\\", sans-serif",
                                  "fontSize": "0.875rem",
                                  "fontWeight": 500,
                                  "letterSpacing": "0.00714em",
                                  "lineHeight": 1.57,
                                },
                                "title": Object {
                                  "color": "rgba(0, 0, 0, 0.87)",
                                  "fontFamily": "\\"Roboto\\", \\"Helvetica\\", \\"Arial\\", sans-serif",
                                  "fontSize": "1.3125rem",
                                  "fontWeight": 500,
                                  "lineHeight": "1.16667em",
                                },
                                "useNextVariants": false,
                              },
                              "zIndex": Object {
                                "appBar": 1100,
                                "drawer": 1200,
                                "mobileStepper": 1000,
                                "modal": 1300,
                                "snackbar": 1400,
                                "tooltip": 1500,
                              },
                            }
                          }
                          variant="body2"
                        >
                          <p
                            className="MuiTypography-root-1 MuiTypography-body2-9"
                          >
                            test
                          </p>
                        </Typography>
                      </WithStyles(Typography)>
                    </div>
                    <div
                      className=""
                    />
                  </div>
                </div>
              </span>
              <NoSsr
                defer={false}
                fallback={null}
              >
                <WithStyles(TouchRipple)
                  center={false}
                  innerRef={[Function]}
                >
                  <TouchRipple
                    center={false}
                    classes={
                      Object {
                        "child": "MuiTouchRipple-child-70",
                        "childLeaving": "MuiTouchRipple-childLeaving-71",
                        "childPulsate": "MuiTouchRipple-childPulsate-72",
                        "ripple": "MuiTouchRipple-ripple-67",
                        "ripplePulsate": "MuiTouchRipple-ripplePulsate-69",
                        "rippleVisible": "MuiTouchRipple-rippleVisible-68",
                        "root": "MuiTouchRipple-root-66",
                      }
                    }
                  >
                    <TransitionGroup
                      childFactory={[Function]}
                      className="MuiTouchRipple-root-66"
                      component="span"
                      enter={true}
                      exit={true}
                    >
                      <span
                        className="MuiTouchRipple-root-66"
                      />
                    </TransitionGroup>
                  </TouchRipple>
                </WithStyles(TouchRipple)>
              </NoSsr>
            </button>
          </ButtonBase>
        </WithStyles(ButtonBase)>
      </Button>
    </WithStyles(Button)>
  </Button>
</StringCell>
`;

exports[`[Component][Basics][Cell][String] Component style with no props 1`] = `
<StringCell
  cellClassName=""
  classes={Object {}}
  colorError={false}
  detail=""
  detailClassName=""
  iconLeftClassName=""
  iconRightClassName=""
  isAmount={false}
  label=""
  labelClassName=""
  modification={false}
  noWrap={false}
  onClick={null}
  paddingLeft={false}
  stringClassName=""
  typoVariant="body2"
  value={null}
>
  <div
    className=""
  >
    <div
      className=""
    >
      <div
        className=""
      >
        <WithStyles(Typography)
          color="default"
          noWrap={false}
          variant="body2"
        >
          <Typography
            align="inherit"
            classes={
              Object {
                "alignCenter": "MuiTypography-alignCenter-24",
                "alignJustify": "MuiTypography-alignJustify-26",
                "alignLeft": "MuiTypography-alignLeft-23",
                "alignRight": "MuiTypography-alignRight-25",
                "body1": "MuiTypography-body1-10",
                "body2": "MuiTypography-body2-9",
                "button": "MuiTypography-button-12",
                "caption": "MuiTypography-caption-11",
                "colorError": "MuiTypography-colorError-35",
                "colorInherit": "MuiTypography-colorInherit-30",
                "colorPrimary": "MuiTypography-colorPrimary-31",
                "colorSecondary": "MuiTypography-colorSecondary-32",
                "colorTextPrimary": "MuiTypography-colorTextPrimary-33",
                "colorTextSecondary": "MuiTypography-colorTextSecondary-34",
                "display1": "MuiTypography-display1-5",
                "display2": "MuiTypography-display2-4",
                "display3": "MuiTypography-display3-3",
                "display4": "MuiTypography-display4-2",
                "gutterBottom": "MuiTypography-gutterBottom-28",
                "h1": "MuiTypography-h1-13",
                "h2": "MuiTypography-h2-14",
                "h3": "MuiTypography-h3-15",
                "h4": "MuiTypography-h4-16",
                "h5": "MuiTypography-h5-17",
                "h6": "MuiTypography-h6-18",
                "headline": "MuiTypography-headline-6",
                "inline": "MuiTypography-inline-36",
                "noWrap": "MuiTypography-noWrap-27",
                "overline": "MuiTypography-overline-21",
                "paragraph": "MuiTypography-paragraph-29",
                "root": "MuiTypography-root-1",
                "srOnly": "MuiTypography-srOnly-22",
                "subheading": "MuiTypography-subheading-8",
                "subtitle1": "MuiTypography-subtitle1-19",
                "subtitle2": "MuiTypography-subtitle2-20",
                "title": "MuiTypography-title-7",
              }
            }
            color="default"
            gutterBottom={false}
            headlineMapping={
              Object {
                "body1": "p",
                "body2": "p",
                "display1": "h1",
                "display2": "h1",
                "display3": "h1",
                "display4": "h1",
                "h1": "h1",
                "h2": "h2",
                "h3": "h3",
                "h4": "h4",
                "h5": "h5",
                "h6": "h6",
                "headline": "h1",
                "subheading": "h3",
                "subtitle1": "h6",
                "subtitle2": "h6",
                "title": "h2",
              }
            }
            inline={false}
            noWrap={false}
            paragraph={false}
            theme={
              Object {
                "breakpoints": Object {
                  "between": [Function],
                  "down": [Function],
                  "keys": Array [
                    "xs",
                    "sm",
                    "md",
                    "lg",
                    "xl",
                  ],
                  "only": [Function],
                  "up": [Function],
                  "values": Object {
                    "lg": 1280,
                    "md": 960,
                    "sm": 600,
                    "xl": 1920,
                    "xs": 0,
                  },
                  "width": [Function],
                },
                "direction": "ltr",
                "mixins": Object {
                  "gutters": [Function],
                  "toolbar": Object {
                    "@media (min-width:0px) and (orientation: landscape)": Object {
                      "minHeight": 48,
                    },
                    "@media (min-width:600px)": Object {
                      "minHeight": 64,
                    },
                    "minHeight": 56,
                  },
                },
                "overrides": Object {},
                "palette": Object {
                  "action": Object {
                    "active": "rgba(0, 0, 0, 0.54)",
                    "disabled": "rgba(0, 0, 0, 0.26)",
                    "disabledBackground": "rgba(0, 0, 0, 0.12)",
                    "hover": "rgba(0, 0, 0, 0.08)",
                    "hoverOpacity": 0.08,
                    "selected": "rgba(0, 0, 0, 0.14)",
                  },
                  "augmentColor": [Function],
                  "background": Object {
                    "default": "#fafafa",
                    "paper": "#fff",
                  },
                  "common": Object {
                    "black": "#000",
                    "white": "#fff",
                  },
                  "contrastThreshold": 3,
                  "divider": "rgba(0, 0, 0, 0.12)",
                  "error": Object {
                    "contrastText": "#fff",
                    "dark": "#d32f2f",
                    "light": "#e57373",
                    "main": "#f44336",
                  },
                  "getContrastText": [Function],
                  "grey": Object {
                    "100": "#f5f5f5",
                    "200": "#eeeeee",
                    "300": "#e0e0e0",
                    "400": "#bdbdbd",
                    "50": "#fafafa",
                    "500": "#9e9e9e",
                    "600": "#757575",
                    "700": "#616161",
                    "800": "#424242",
                    "900": "#212121",
                    "A100": "#d5d5d5",
                    "A200": "#aaaaaa",
                    "A400": "#303030",
                    "A700": "#616161",
                  },
                  "primary": Object {
                    "contrastText": "#fff",
                    "dark": "#303f9f",
                    "light": "#7986cb",
                    "main": "#3f51b5",
                  },
                  "secondary": Object {
                    "contrastText": "#fff",
                    "dark": "#c51162",
                    "light": "#ff4081",
                    "main": "#f50057",
                  },
                  "text": Object {
                    "disabled": "rgba(0, 0, 0, 0.38)",
                    "hint": "rgba(0, 0, 0, 0.38)",
                    "primary": "rgba(0, 0, 0, 0.87)",
                    "secondary": "rgba(0, 0, 0, 0.54)",
                  },
                  "tonalOffset": 0.2,
                  "type": "light",
                },
                "props": Object {},
                "shadows": Array [
                  "none",
                  "0px 1px 3px 0px rgba(0,0,0,0.2),0px 1px 1px 0px rgba(0,0,0,0.14),0px 2px 1px -1px rgba(0,0,0,0.12)",
                  "0px 1px 5px 0px rgba(0,0,0,0.2),0px 2px 2px 0px rgba(0,0,0,0.14),0px 3px 1px -2px rgba(0,0,0,0.12)",
                  "0px 1px 8px 0px rgba(0,0,0,0.2),0px 3px 4px 0px rgba(0,0,0,0.14),0px 3px 3px -2px rgba(0,0,0,0.12)",
                  "0px 2px 4px -1px rgba(0,0,0,0.2),0px 4px 5px 0px rgba(0,0,0,0.14),0px 1px 10px 0px rgba(0,0,0,0.12)",
                  "0px 3px 5px -1px rgba(0,0,0,0.2),0px 5px 8px 0px rgba(0,0,0,0.14),0px 1px 14px 0px rgba(0,0,0,0.12)",
                  "0px 3px 5px -1px rgba(0,0,0,0.2),0px 6px 10px 0px rgba(0,0,0,0.14),0px 1px 18px 0px rgba(0,0,0,0.12)",
                  "0px 4px 5px -2px rgba(0,0,0,0.2),0px 7px 10px 1px rgba(0,0,0,0.14),0px 2px 16px 1px rgba(0,0,0,0.12)",
                  "0px 5px 5px -3px rgba(0,0,0,0.2),0px 8px 10px 1px rgba(0,0,0,0.14),0px 3px 14px 2px rgba(0,0,0,0.12)",
                  "0px 5px 6px -3px rgba(0,0,0,0.2),0px 9px 12px 1px rgba(0,0,0,0.14),0px 3px 16px 2px rgba(0,0,0,0.12)",
                  "0px 6px 6px -3px rgba(0,0,0,0.2),0px 10px 14px 1px rgba(0,0,0,0.14),0px 4px 18px 3px rgba(0,0,0,0.12)",
                  "0px 6px 7px -4px rgba(0,0,0,0.2),0px 11px 15px 1px rgba(0,0,0,0.14),0px 4px 20px 3px rgba(0,0,0,0.12)",
                  "0px 7px 8px -4px rgba(0,0,0,0.2),0px 12px 17px 2px rgba(0,0,0,0.14),0px 5px 22px 4px rgba(0,0,0,0.12)",
                  "0px 7px 8px -4px rgba(0,0,0,0.2),0px 13px 19px 2px rgba(0,0,0,0.14),0px 5px 24px 4px rgba(0,0,0,0.12)",
                  "0px 7px 9px -4px rgba(0,0,0,0.2),0px 14px 21px 2px rgba(0,0,0,0.14),0px 5px 26px 4px rgba(0,0,0,0.12)",
                  "0px 8px 9px -5px rgba(0,0,0,0.2),0px 15px 22px 2px rgba(0,0,0,0.14),0px 6px 28px 5px rgba(0,0,0,0.12)",
                  "0px 8px 10px -5px rgba(0,0,0,0.2),0px 16px 24px 2px rgba(0,0,0,0.14),0px 6px 30px 5px rgba(0,0,0,0.12)",
                  "0px 8px 11px -5px rgba(0,0,0,0.2),0px 17px 26px 2px rgba(0,0,0,0.14),0px 6px 32px 5px rgba(0,0,0,0.12)",
                  "0px 9px 11px -5px rgba(0,0,0,0.2),0px 18px 28px 2px rgba(0,0,0,0.14),0px 7px 34px 6px rgba(0,0,0,0.12)",
                  "0px 9px 12px -6px rgba(0,0,0,0.2),0px 19px 29px 2px rgba(0,0,0,0.14),0px 7px 36px 6px rgba(0,0,0,0.12)",
                  "0px 10px 13px -6px rgba(0,0,0,0.2),0px 20px 31px 3px rgba(0,0,0,0.14),0px 8px 38px 7px rgba(0,0,0,0.12)",
                  "0px 10px 13px -6px rgba(0,0,0,0.2),0px 21px 33px 3px rgba(0,0,0,0.14),0px 8px 40px 7px rgba(0,0,0,0.12)",
                  "0px 10px 14px -6px rgba(0,0,0,0.2),0px 22px 35px 3px rgba(0,0,0,0.14),0px 8px 42px 7px rgba(0,0,0,0.12)",
                  "0px 11px 14px -7px rgba(0,0,0,0.2),0px 23px 36px 3px rgba(0,0,0,0.14),0px 9px 44px 8px rgba(0,0,0,0.12)",
                  "0px 11px 15px -7px rgba(0,0,0,0.2),0px 24px 38px 3px rgba(0,0,0,0.14),0px 9px 46px 8px rgba(0,0,0,0.12)",
                ],
                "shape": Object {
                  "borderRadius": 4,
                },
                "spacing": Object {
                  "unit": 8,
                },
                "transitions": Object {
                  "create": [Function],
                  "duration": Object {
                    "complex": 375,
                    "enteringScreen": 225,
                    "leavingScreen": 195,
                    "short": 250,
                    "shorter": 200,
                    "shortest": 150,
                    "standard": 300,
                  },
                  "easing": Object {
                    "easeIn": "cubic-bezier(0.4, 0, 1, 1)",
                    "easeInOut": "cubic-bezier(0.4, 0, 0.2, 1)",
                    "easeOut": "cubic-bezier(0.0, 0, 0.2, 1)",
                    "sharp": "cubic-bezier(0.4, 0, 0.6, 1)",
                  },
                  "getAutoHeightDuration": [Function],
                },
                "typography": Object {
                  "body1": Object {
                    "color": "rgba(0, 0, 0, 0.87)",
                    "fontFamily": "\\"Roboto\\", \\"Helvetica\\", \\"Arial\\", sans-serif",
                    "fontSize": "0.875rem",
                    "fontWeight": 400,
                    "lineHeight": "1.46429em",
                  },
                  "body1Next": Object {
                    "color": "rgba(0, 0, 0, 0.87)",
                    "fontFamily": "\\"Roboto\\", \\"Helvetica\\", \\"Arial\\", sans-serif",
                    "fontSize": "1rem",
                    "fontWeight": 400,
                    "letterSpacing": "0.00938em",
                    "lineHeight": 1.5,
                  },
                  "body2": Object {
                    "color": "rgba(0, 0, 0, 0.87)",
                    "fontFamily": "\\"Roboto\\", \\"Helvetica\\", \\"Arial\\", sans-serif",
                    "fontSize": "0.875rem",
                    "fontWeight": 500,
                    "lineHeight": "1.71429em",
                  },
                  "body2Next": Object {
                    "color": "rgba(0, 0, 0, 0.87)",
                    "fontFamily": "\\"Roboto\\", \\"Helvetica\\", \\"Arial\\", sans-serif",
                    "fontSize": "0.875rem",
                    "fontWeight": 400,
                    "letterSpacing": "0.01071em",
                    "lineHeight": 1.5,
                  },
                  "button": Object {
                    "color": "rgba(0, 0, 0, 0.87)",
                    "fontFamily": "\\"Roboto\\", \\"Helvetica\\", \\"Arial\\", sans-serif",
                    "fontSize": "0.875rem",
                    "fontWeight": 500,
                    "textTransform": "uppercase",
                  },
                  "buttonNext": Object {
                    "color": "rgba(0, 0, 0, 0.87)",
                    "fontFamily": "\\"Roboto\\", \\"Helvetica\\", \\"Arial\\", sans-serif",
                    "fontSize": "0.875rem",
                    "fontWeight": 500,
                    "letterSpacing": "0.02857em",
                    "lineHeight": 1.75,
                    "textTransform": "uppercase",
                  },
                  "caption": Object {
                    "color": "rgba(0, 0, 0, 0.54)",
                    "fontFamily": "\\"Roboto\\", \\"Helvetica\\", \\"Arial\\", sans-serif",
                    "fontSize": "0.75rem",
                    "fontWeight": 400,
                    "lineHeight": "1.375em",
                  },
                  "captionNext": Object {
                    "color": "rgba(0, 0, 0, 0.87)",
                    "fontFamily": "\\"Roboto\\", \\"Helvetica\\", \\"Arial\\", sans-serif",
                    "fontSize": "0.75rem",
                    "fontWeight": 400,
                    "letterSpacing": "0.03333em",
                    "lineHeight": 1.66,
                  },
                  "display1": Object {
                    "color": "rgba(0, 0, 0, 0.54)",
                    "fontFamily": "\\"Roboto\\", \\"Helvetica\\", \\"Arial\\", sans-serif",
                    "fontSize": "2.125rem",
                    "fontWeight": 400,
                    "lineHeight": "1.20588em",
                  },
                  "display2": Object {
                    "color": "rgba(0, 0, 0, 0.54)",
                    "fontFamily": "\\"Roboto\\", \\"Helvetica\\", \\"Arial\\", sans-serif",
                    "fontSize": "2.8125rem",
                    "fontWeight": 400,
                    "lineHeight": "1.13333em",
                    "marginLeft": "-.02em",
                  },
                  "display3": Object {
                    "color": "rgba(0, 0, 0, 0.54)",
                    "fontFamily": "\\"Roboto\\", \\"Helvetica\\", \\"Arial\\", sans-serif",
                    "fontSize": "3.5rem",
                    "fontWeight": 400,
                    "letterSpacing": "-.02em",
                    "lineHeight": "1.30357em",
                    "marginLeft": "-.02em",
                  },
                  "display4": Object {
                    "color": "rgba(0, 0, 0, 0.54)",
                    "fontFamily": "\\"Roboto\\", \\"Helvetica\\", \\"Arial\\", sans-serif",
                    "fontSize": "7rem",
                    "fontWeight": 300,
                    "letterSpacing": "-.04em",
                    "lineHeight": "1.14286em",
                    "marginLeft": "-.04em",
                  },
                  "fontFamily": "\\"Roboto\\", \\"Helvetica\\", \\"Arial\\", sans-serif",
                  "fontSize": 14,
                  "fontWeightLight": 300,
                  "fontWeightMedium": 500,
                  "fontWeightRegular": 400,
                  "h1": Object {
                    "color": "rgba(0, 0, 0, 0.87)",
                    "fontFamily": "\\"Roboto\\", \\"Helvetica\\", \\"Arial\\", sans-serif",
                    "fontSize": "6rem",
                    "fontWeight": 300,
                    "letterSpacing": "-0.01562em",
                    "lineHeight": 1,
                  },
                  "h2": Object {
                    "color": "rgba(0, 0, 0, 0.87)",
                    "fontFamily": "\\"Roboto\\", \\"Helvetica\\", \\"Arial\\", sans-serif",
                    "fontSize": "3.75rem",
                    "fontWeight": 300,
                    "letterSpacing": "-0.00833em",
                    "lineHeight": 1,
                  },
                  "h3": Object {
                    "color": "rgba(0, 0, 0, 0.87)",
                    "fontFamily": "\\"Roboto\\", \\"Helvetica\\", \\"Arial\\", sans-serif",
                    "fontSize": "3rem",
                    "fontWeight": 400,
                    "letterSpacing": "0em",
                    "lineHeight": 1.04,
                  },
                  "h4": Object {
                    "color": "rgba(0, 0, 0, 0.87)",
                    "fontFamily": "\\"Roboto\\", \\"Helvetica\\", \\"Arial\\", sans-serif",
                    "fontSize": "2.125rem",
                    "fontWeight": 400,
                    "letterSpacing": "0.00735em",
                    "lineHeight": 1.17,
                  },
                  "h5": Object {
                    "color": "rgba(0, 0, 0, 0.87)",
                    "fontFamily": "\\"Roboto\\", \\"Helvetica\\", \\"Arial\\", sans-serif",
                    "fontSize": "1.5rem",
                    "fontWeight": 400,
                    "letterSpacing": "0em",
                    "lineHeight": 1.33,
                  },
                  "h6": Object {
                    "color": "rgba(0, 0, 0, 0.87)",
                    "fontFamily": "\\"Roboto\\", \\"Helvetica\\", \\"Arial\\", sans-serif",
                    "fontSize": "1.25rem",
                    "fontWeight": 500,
                    "letterSpacing": "0.0075em",
                    "lineHeight": 1.6,
                  },
                  "headline": Object {
                    "color": "rgba(0, 0, 0, 0.87)",
                    "fontFamily": "\\"Roboto\\", \\"Helvetica\\", \\"Arial\\", sans-serif",
                    "fontSize": "1.5rem",
                    "fontWeight": 400,
                    "lineHeight": "1.35417em",
                  },
                  "overline": Object {
                    "color": "rgba(0, 0, 0, 0.87)",
                    "fontFamily": "\\"Roboto\\", \\"Helvetica\\", \\"Arial\\", sans-serif",
                    "fontSize": "0.75rem",
                    "fontWeight": 400,
                    "letterSpacing": "0.08333em",
                    "lineHeight": 2.66,
                    "textTransform": "uppercase",
                  },
                  "pxToRem": [Function],
                  "round": [Function],
                  "subheading": Object {
                    "color": "rgba(0, 0, 0, 0.87)",
                    "fontFamily": "\\"Roboto\\", \\"Helvetica\\", \\"Arial\\", sans-serif",
                    "fontSize": "1rem",
                    "fontWeight": 400,
                    "lineHeight": "1.5em",
                  },
                  "subtitle1": Object {
                    "color": "rgba(0, 0, 0, 0.87)",
                    "fontFamily": "\\"Roboto\\", \\"Helvetica\\", \\"Arial\\", sans-serif",
                    "fontSize": "1rem",
                    "fontWeight": 400,
                    "letterSpacing": "0.00938em",
                    "lineHeight": 1.75,
                  },
                  "subtitle2": Object {
                    "color": "rgba(0, 0, 0, 0.87)",
                    "fontFamily": "\\"Roboto\\", \\"Helvetica\\", \\"Arial\\", sans-serif",
                    "fontSize": "0.875rem",
                    "fontWeight": 500,
                    "letterSpacing": "0.00714em",
                    "lineHeight": 1.57,
                  },
                  "title": Object {
                    "color": "rgba(0, 0, 0, 0.87)",
                    "fontFamily": "\\"Roboto\\", \\"Helvetica\\", \\"Arial\\", sans-serif",
                    "fontSize": "1.3125rem",
                    "fontWeight": 500,
                    "lineHeight": "1.16667em",
                  },
                  "useNextVariants": false,
                },
                "zIndex": Object {
                  "appBar": 1100,
                  "drawer": 1200,
                  "mobileStepper": 1000,
                  "modal": 1300,
                  "snackbar": 1400,
                  "tooltip": 1500,
                },
              }
            }
            variant="body2"
          >
            <p
              className="MuiTypography-root-1 MuiTypography-body2-9"
            />
          </Typography>
        </WithStyles(Typography)>
      </div>
      <div
        className=""
      />
    </div>
  </div>
</StringCell>
`;
