// Jest Snapshot v1, https://goo.gl/fbAQLP

exports[`[Component][Basics][Cell][SelectCell] Component should render 1`] = `
<div
  class="MuiInputBase-root-21 MuiInput-root-8 testSelectCell"
  color="primary"
>
  <div
    class="MuiSelect-root-1"
  >
    <div
      aria-haspopup="true"
      aria-pressed="false"
      class="MuiSelect-select-2 input MuiSelect-selectMenu-5 MuiInputBase-input-31 MuiInput-input-16"
      role="button"
      tabindex="0"
    >
      <span>
        ​
      </span>
    </div>
    <input
      type="hidden"
      value=""
    />
    <svg
      aria-hidden="true"
      class="MuiSvgIcon-root-38 MuiSelect-icon-7 icon"
      focusable="false"
      role="presentation"
      viewBox="0 0 24 24"
    >
      <path
        d="M7 10l5 5 5-5z"
      />
    </svg>
  </div>
</div>
`;
