// Jest Snapshot v1, https://goo.gl/fbAQLP

exports[`[Component][Basics][Cell][FooterCell] Component should render for custom Cell 1`] = `
<td
  class="MuiTableCell-root-1"
>
  <span>
    Test custom
  </span>
</td>
`;

exports[`[Component][Basics][Cell][FooterCell] Component should render for string type 1`] = `
<td
  class="MuiTableCell-root-1"
/>
`;

exports[`[Component][Basics][Cell][FooterCell] Component should render with no props 1`] = `
<td
  class="MuiTableCell-root-1"
/>
`;
